module gitlab.com/arseniy.shtunder/task-5

go 1.22.0

require (
	github.com/DATA-DOG/go-sqlmock v1.5.2
	github.com/lib/pq v1.10.9
	github.com/mdlayher/wifi v0.1.0
	github.com/stretchr/testify v1.9.0
)

require (
	github.com/davecgh/go-spew v1.1.1 // indirect
	github.com/google/go-cmp v0.5.9 // indirect
	github.com/josharian/native v1.1.0 // indirect
	github.com/mdlayher/genetlink v1.3.2 // indirect
	github.com/mdlayher/netlink v1.7.2 // indirect
	github.com/mdlayher/socket v0.4.1 // indirect
	github.com/pmezard/go-difflib v1.0.0 // indirect
	github.com/stretchr/objx v0.5.2 // indirect
	golang.org/x/crypto v0.10.0 // indirect
	golang.org/x/net v0.10.0 // indirect
	golang.org/x/sync v0.1.0 // indirect
	golang.org/x/sys v0.9.0 // indirect
	gopkg.in/yaml.v3 v3.0.1 // indirect
)
